counter_with_mux/simulation/qsim/counter_with_mux.msim.vcd
$comment
	File created using the following command:
		vcd file counter_with_mux.msim.vcd -direction
$end
$date
	Fri Sep 29 18:22:46 2023
$end
$version
	ModelSim Version 10.5b
$end
$timescale
	1ps
$end

$scope module automatic_counter_with_mux_vlg_vec_tst $end
$var reg 1 ! clock_auto $end
$var reg 1 " sw0 $end
$var reg 1 # sw16 $end
$var reg 1 $ sw17 $end
$var wire 1 % a $end
$var wire 1 & b $end
$var wire 1 ' banana $end
$var wire 1 ( c $end
$var wire 1 ) d $end
$var wire 1 * e $end
$var wire 1 + f $end
$var wire 1 , g $end

$scope module i1 $end
$var wire 1 - gnd $end
$var wire 1 . vcc $end
$var wire 1 / unknown $end
$var tri1 1 0 devclrn $end
$var tri1 1 1 devpor $end
$var tri1 1 2 devoe $end
$var wire 1 3 a~output_o $end
$var wire 1 4 b~output_o $end
$var wire 1 5 c~output_o $end
$var wire 1 6 d~output_o $end
$var wire 1 7 e~output_o $end
$var wire 1 8 f~output_o $end
$var wire 1 9 g~output_o $end
$var wire 1 : banana~output_o $end
$var wire 1 ; clock_auto~input_o $end
$var wire 1 < clock_auto~inputclkctrl_outclk $end
$var wire 1 = inst|inst5|inst~0_combout $end
$var wire 1 > inst|inst5|inst~feeder_combout $end
$var wire 1 ? inst|inst59~feeder_combout $end
$var wire 1 @ inst|inst59~q $end
$var wire 1 A inst|inst5|inst~q $end
$var wire 1 B inst|inst61|inst~0_combout $end
$var wire 1 C inst|inst61|inst~feeder_combout $end
$var wire 1 D inst|inst61|inst~q $end
$var wire 1 E inst|inst99|inst~0_combout $end
$var wire 1 F inst|inst99|inst~feeder_combout $end
$var wire 1 G inst|inst99|inst~q $end
$var wire 1 H inst|inst7|inst~0_combout $end
$var wire 1 I inst|inst7|inst~feeder_combout $end
$var wire 1 J inst|inst7|inst~q $end
$var wire 1 K inst|inst8|inst~0_combout $end
$var wire 1 L inst|inst8|inst~feeder_combout $end
$var wire 1 M inst|inst8|inst~q $end
$var wire 1 N inst|inst14|inst~0_combout $end
$var wire 1 O inst|inst14|inst~feeder_combout $end
$var wire 1 P inst|inst14|inst~q $end
$var wire 1 Q inst|inst9|inst~0_combout $end
$var wire 1 R inst|inst9|inst~feeder_combout $end
$var wire 1 S inst|inst9|inst~q $end
$var wire 1 T inst|inst10|inst~0_combout $end
$var wire 1 U inst|inst10|inst~feeder_combout $end
$var wire 1 V inst|inst10|inst~q $end
$var wire 1 W inst|inst15|inst~0_combout $end
$var wire 1 X inst|inst15|inst~feeder_combout $end
$var wire 1 Y inst|inst15|inst~q $end
$var wire 1 Z inst|inst17|inst~0_combout $end
$var wire 1 [ inst|inst17|inst~feeder_combout $end
$var wire 1 \ inst|inst17|inst~q $end
$var wire 1 ] inst|inst18|inst~0_combout $end
$var wire 1 ^ inst|inst18|inst~feeder_combout $end
$var wire 1 _ inst|inst18|inst~q $end
$var wire 1 ` inst|inst19|inst~0_combout $end
$var wire 1 a inst|inst19|inst~feeder_combout $end
$var wire 1 b inst|inst19|inst~q $end
$var wire 1 c inst|inst20|inst~0_combout $end
$var wire 1 d inst|inst20|inst~feeder_combout $end
$var wire 1 e inst|inst20|inst~q $end
$var wire 1 f inst|inst24|inst~0_combout $end
$var wire 1 g inst|inst24|inst~feeder_combout $end
$var wire 1 h inst|inst24|inst~q $end
$var wire 1 i inst|inst22|inst~0_combout $end
$var wire 1 j inst|inst22|inst~feeder_combout $end
$var wire 1 k inst|inst22|inst~q $end
$var wire 1 l inst|inst23|inst~0_combout $end
$var wire 1 m inst|inst23|inst~feeder_combout $end
$var wire 1 n inst|inst23|inst~q $end
$var wire 1 o inst|inst25|inst~0_combout $end
$var wire 1 p inst|inst25|inst~feeder_combout $end
$var wire 1 q inst|inst25|inst~q $end
$var wire 1 r inst|inst27|inst~0_combout $end
$var wire 1 s inst|inst27|inst~feeder_combout $end
$var wire 1 t inst|inst27|inst~q $end
$var wire 1 u inst|inst28|inst~0_combout $end
$var wire 1 v inst|inst28|inst~feeder_combout $end
$var wire 1 w inst|inst28|inst~q $end
$var wire 1 x inst|inst29|inst~0_combout $end
$var wire 1 y inst|inst29|inst~feeder_combout $end
$var wire 1 z inst|inst29|inst~q $end
$var wire 1 { inst|inst30|inst~0_combout $end
$var wire 1 | inst|inst30|inst~q $end
$var wire 1 } inst|inst32|inst~0_combout $end
$var wire 1 ~ inst|inst32|inst~feeder_combout $end
$var wire 1 !! inst|inst32|inst~q $end
$var wire 1 "! inst|inst33|inst~0_combout $end
$var wire 1 #! inst|inst33|inst~feeder_combout $end
$var wire 1 $! inst|inst33|inst~q $end
$var wire 1 %! inst|inst34|inst~0_combout $end
$var wire 1 &! inst|inst34|inst~feeder_combout $end
$var wire 1 '! inst|inst34|inst~q $end
$var wire 1 (! inst|inst35|inst~0_combout $end
$var wire 1 )! inst|inst35|inst~q $end
$var wire 1 *! inst|inst55~5_combout $end
$var wire 1 +! inst|inst55~1_combout $end
$var wire 1 ,! inst|inst55~0_combout $end
$var wire 1 -! inst|inst55~2_combout $end
$var wire 1 .! inst|inst55~3_combout $end
$var wire 1 /! inst|inst55~4_combout $end
$var wire 1 0! inst|inst55~6_combout $end
$var wire 1 1! inst|inst55~combout $end
$var wire 1 2! inst|inst57~0_combout $end
$var wire 1 3! inst|inst57~feeder_combout $end
$var wire 1 4! inst|inst57~q $end
$var wire 1 5! inst|inst64~0_combout $end
$var wire 1 6! inst|inst64~feeder_combout $end
$var wire 1 7! inst|inst64~q $end
$var wire 1 8! inst|inst37~0_combout $end
$var wire 1 9! inst|inst37~feeder_combout $end
$var wire 1 :! inst|inst41~feeder_combout $end
$var wire 1 ;! inst|inst41~q $end
$var wire 1 <! inst|inst37~q $end
$var wire 1 =! inst|inst40~0_combout $end
$var wire 1 >! inst|inst40~feeder_combout $end
$var wire 1 ?! inst|inst40~q $end
$var wire 1 @! inst|inst53~0_combout $end
$var wire 1 A! inst|inst53~feeder_combout $end
$var wire 1 B! inst|inst53~q $end
$var wire 1 C! inst|inst56~0_combout $end
$var wire 1 D! inst|inst56~q $end
$var wire 1 E! sw16~input_o $end
$var wire 1 F! sw17~input_o $end
$var wire 1 G! inst1|inst~1_combout $end
$var wire 1 H! inst1|inst~combout $end
$var wire 1 I! inst3|inst5|inst3~0_combout $end
$var wire 1 J! inst3|inst5|inst3~feeder_combout $end
$var wire 1 K! sw0~input_o $end
$var wire 1 L! inst3|inst5|inst3~q $end
$var wire 1 M! inst3|inst5|inst5~0_combout $end
$var wire 1 N! inst3|inst5|inst5~feeder_combout $end
$var wire 1 O! inst3|inst5|inst5~q $end
$var wire 1 P! inst3|inst5|inst6~0_combout $end
$var wire 1 Q! inst3|inst5|inst6~q $end
$var wire 1 R! inst3|inst2|inst|inst6~0_combout $end
$var wire 1 S! inst3|inst2|inst|inst9~0_combout $end
$var wire 1 T! inst3|inst2|inst|inst10~combout $end
$var wire 1 U! inst3|inst2|inst|inst16~0_combout $end
$var wire 1 V! inst3|inst2|inst|inst16~1_combout $end
$var wire 1 W! inst3|inst2|inst|inst24~0_combout $end
$var wire 1 X! inst3|inst2|inst|inst28~0_combout $end
$upscope $end
$upscope $end
$enddefinitions $end
#0
$dumpvars
0!
x"
x#
x$
0%
0&
0'
0(
0)
0*
0+
1,
0-
1.
x/
10
11
12
03
04
05
06
07
08
19
0:
0;
0<
1=
1>
0?
0@
0A
1B
1C
0D
1E
1F
0G
1H
1I
0J
1K
1L
0M
1N
1O
0P
1Q
1R
0S
1T
1U
0V
1W
1X
0Y
1Z
1[
0\
1]
1^
0_
1`
1a
0b
1c
1d
0e
1f
1g
0h
1i
1j
0k
1l
1m
0n
1o
1p
0q
1r
1s
0t
1u
1v
0w
1x
1y
0z
1{
0|
1}
1~
0!!
1"!
1#!
0$!
1%!
1&!
0'!
1(!
0)!
0*!
0+!
0,!
0-!
0.!
0/!
00!
01!
12!
13!
04!
15!
16!
07!
18!
19!
0:!
0;!
0<!
1=!
1>!
0?!
1@!
1A!
0B!
1C!
0D!
xE!
xF!
xG!
xH!
1I!
1J!
xK!
0L!
1M!
1N!
0O!
1P!
0Q!
1R!
1S!
1T!
1U!
1V!
1W!
0X!
$end
#500
1!
1;
1<
1A
0=
0>
1D
0B
0C
1G
0E
0F
1J
0H
0I
1M
0K
0L
1P
0N
0O
1S
0Q
0R
1V
0T
0U
1Y
0W
0X
1\
0Z
0[
1_
0]
0^
1b
0`
0a
1e
0c
0d
1h
0f
0g
1k
0i
0j
1n
0l
0m
1q
0o
0p
1t
0r
0s
1w
0u
0v
1z
1*!
0x
0y
1|
0{
1!!
0}
0~
1$!
0"!
0#!
1'!
0%!
0&!
1)!
0(!
#1000
0!
0;
0<
#1500
1!
1;
1<
0A
1=
1>
#2000
0!
0;
0<
#2500
1!
1;
1<
1A
0=
0>
0D
1B
1C
#3000
0!
0;
0<
#3500
1!
1;
1<
0A
1=
1>
#4000
0!
0;
0<
#4500
1!
1;
1<
1A
0=
0>
1D
0B
0C
0G
1E
1F
#5000
0!
0;
0<
#5500
1!
1;
1<
0A
1=
1>
#6000
0!
0;
0<
#6500
1!
1;
1<
1A
0=
0>
0D
1B
1C
#7000
0!
0;
0<
#7500
1!
1;
1<
0A
1=
1>
#8000
0!
0;
0<
#8500
1!
1;
1<
1A
0=
0>
1D
0B
0C
1G
0E
0F
0J
1H
1I
#9000
0!
0;
0<
#9500
1!
1;
1<
0A
1=
1>
#10000
0!
0;
0<
#10500
1!
1;
1<
1A
0=
0>
0D
1B
1C
#11000
0!
0;
0<
#11500
1!
1;
1<
0A
1=
1>
#12000
0!
0;
0<
#12500
1!
1;
1<
1A
0=
0>
1D
0B
0C
0G
1E
1F
#13000
0!
0;
0<
#13500
1!
1;
1<
0A
1=
1>
#14000
0!
0;
0<
#14500
1!
1;
1<
1A
0=
0>
0D
1B
1C
#15000
0!
0;
0<
#15500
1!
1;
1<
0A
1=
1>
#16000
0!
0;
0<
#16500
1!
1;
1<
1A
0=
0>
1D
0B
0C
1G
0E
0F
1J
0H
0I
0M
1K
1L
#17000
0!
0;
0<
#17500
1!
1;
1<
0A
1=
1>
#18000
0!
0;
0<
#18500
1!
1;
1<
1A
0=
0>
0D
1B
1C
#19000
0!
0;
0<
#19500
1!
1;
1<
0A
1=
1>
#20000
0!
0;
0<
#20500
1!
1;
1<
1A
0=
0>
1D
0B
0C
0G
1E
1F
#21000
0!
0;
0<
#21500
1!
1;
1<
0A
1=
1>
#22000
0!
0;
0<
#22500
1!
1;
1<
1A
0=
0>
0D
1B
1C
#23000
0!
0;
0<
#23500
1!
1;
1<
0A
1=
1>
#24000
0!
0;
0<
#24500
1!
1;
1<
1A
0=
0>
1D
0B
0C
1G
0E
0F
0J
1H
1I
#25000
0!
0;
0<
#25500
1!
1;
1<
0A
1=
1>
#26000
0!
0;
0<
#26500
1!
1;
1<
1A
0=
0>
0D
1B
1C
#27000
0!
0;
0<
#27500
1!
1;
1<
0A
1=
1>
#28000
0!
0;
0<
#28500
1!
1;
1<
1A
0=
0>
1D
0B
0C
0G
1E
1F
#29000
0!
0;
0<
#29500
1!
1;
1<
0A
1=
1>
#30000
0!
0;
0<
#30500
1!
1;
1<
1A
0=
0>
0D
1B
1C
#31000
0!
0;
0<
#31500
1!
1;
1<
0A
1=
1>
#32000
0!
0;
0<
#32500
1!
1;
1<
1A
0=
0>
1D
0B
0C
1G
0E
0F
1J
0H
0I
1M
0K
0L
0P
1N
1O
#33000
0!
0;
0<
#33500
1!
1;
1<
0A
1=
1>
#34000
0!
0;
0<
#34500
1!
1;
1<
1A
0=
0>
0D
1B
1C
#35000
0!
0;
0<
#35500
1!
1;
1<
0A
1=
1>
#36000
0!
0;
0<
#36500
1!
1;
1<
1A
0=
0>
1D
0B
0C
0G
1E
1F
#37000
0!
0;
0<
#37500
1!
1;
1<
0A
1=
1>
#38000
0!
0;
0<
#38500
1!
1;
1<
1A
0=
0>
0D
1B
1C
#39000
0!
0;
0<
#39500
1!
1;
1<
0A
1=
1>
#40000
0!
0;
0<
#40500
1!
1;
1<
1A
0=
0>
1D
0B
0C
1G
0E
0F
0J
1H
1I
#41000
0!
0;
0<
#41500
1!
1;
1<
0A
1=
1>
#42000
0!
0;
0<
#42500
1!
1;
1<
1A
0=
0>
0D
1B
1C
#43000
0!
0;
0<
#43500
1!
1;
1<
0A
1=
1>
#44000
0!
0;
0<
#44500
1!
1;
1<
1A
0=
0>
1D
0B
0C
0G
1E
1F
#45000
0!
0;
0<
#45500
1!
1;
1<
0A
1=
1>
#46000
0!
0;
0<
#46500
1!
1;
1<
1A
0=
0>
0D
1B
1C
#47000
0!
0;
0<
#47500
1!
1;
1<
0A
1=
1>
#48000
0!
0;
0<
#48500
1!
1;
1<
1A
0=
0>
1D
0B
0C
1G
0E
0F
1J
0H
0I
0M
1K
1L
#49000
0!
0;
0<
#49500
1!
1;
1<
0A
1=
1>
#50000
0!
0;
0<
#50500
1!
1;
1<
1A
0=
0>
0D
1B
1C
#51000
0!
0;
0<
#51500
1!
1;
1<
0A
1=
1>
#52000
0!
0;
0<
#52500
1!
1;
1<
1A
0=
0>
1D
0B
0C
0G
1-!
1E
1F
#53000
0!
0;
0<
#53500
1!
1;
1<
0A
1=
1>
#54000
0!
0;
0<
#54500
1!
1;
1<
1A
0=
0>
0D
1B
1C
#55000
0!
0;
0<
#55500
1!
1;
1<
0A
1=
1>
#56000
0!
0;
0<
#56500
1!
1;
1<
1A
0=
0>
1D
0B
0C
1G
0-!
0E
0F
0J
1H
1I
#57000
0!
0;
0<
#57500
1!
1;
1<
0A
1=
1>
#58000
0!
0;
0<
#58500
1!
1;
1<
1A
0=
0>
0D
1B
1C
#59000
0!
0;
0<
#59500
1!
1;
1<
0A
1=
1>
#60000
0!
0;
0<
#60500
1!
1;
1<
1A
0=
0>
1D
0B
0C
0G
1E
1F
#61000
0!
0;
0<
#61500
1!
1;
1<
0A
1=
1>
#62000
0!
0;
0<
#62500
1!
1;
1<
1A
0=
0>
0D
1B
1C
#63000
0!
0;
0<
#63500
1!
1;
1<
0A
1=
1>
#64000
0!
0;
0<
#64500
1!
1;
1<
1A
0=
0>
1D
0B
0C
1G
0E
0F
1J
0H
0I
1M
0K
0L
1P
0N
0O
0S
1Q
1R
#65000
0!
0;
0<
#65500
1!
1;
1<
0A
1=
1>
#66000
0!
0;
0<
#66500
1!
1;
1<
1A
0=
0>
0D
1B
1C
#67000
0!
0;
0<
#67500
1!
1;
1<
0A
1=
1>
#68000
0!
0;
0<
#68500
1!
1;
1<
1A
0=
0>
1D
0B
0C
0G
1E
1F
#69000
0!
0;
0<
#69500
1!
1;
1<
0A
1=
1>
#70000
0!
0;
0<
#70500
1!
1;
1<
1A
0=
0>
0D
1B
1C
#71000
0!
0;
0<
#71500
1!
1;
1<
0A
1=
1>
#72000
0!
0;
0<
#72500
1!
1;
1<
1A
0=
0>
1D
0B
0C
1G
0E
0F
0J
1H
1I
#73000
0!
0;
0<
#73500
1!
1;
1<
0A
1=
1>
#74000
0!
0;
0<
#74500
1!
1;
1<
1A
0=
0>
0D
1B
1C
#75000
0!
0;
0<
#75500
1!
1;
1<
0A
1=
1>
#76000
0!
0;
0<
#76500
1!
1;
1<
1A
0=
0>
1D
0B
0C
0G
1E
1F
#77000
0!
0;
0<
#77500
1!
1;
1<
0A
1=
1>
#78000
0!
0;
0<
#78500
1!
1;
1<
1A
0=
0>
0D
1B
1C
#79000
0!
0;
0<
#79500
1!
1;
1<
0A
1=
1>
#80000
0!
0;
0<
#80500
1!
1;
1<
1A
0=
0>
1D
0B
0C
1G
0E
0F
1J
0H
0I
0M
1K
1L
#81000
0!
0;
0<
#81500
1!
1;
1<
0A
1=
1>
#82000
0!
0;
0<
#82500
1!
1;
1<
1A
0=
0>
0D
1B
1C
#83000
0!
0;
0<
#83500
1!
1;
1<
0A
1=
1>
#84000
0!
0;
0<
#84500
1!
1;
1<
1A
0=
0>
1D
0B
0C
0G
1E
1F
#85000
0!
0;
0<
#85500
1!
1;
1<
0A
1=
1>
#86000
0!
0;
0<
#86500
1!
1;
1<
1A
0=
0>
0D
1B
1C
#87000
0!
0;
0<
#87500
1!
1;
1<
0A
1=
1>
#88000
0!
0;
0<
#88500
1!
1;
1<
1A
0=
0>
1D
0B
0C
1G
0E
0F
0J
1H
1I
#89000
0!
0;
0<
#89500
1!
1;
1<
0A
1=
1>
#90000
0!
0;
0<
#90500
1!
1;
1<
1A
0=
0>
0D
1B
1C
#91000
0!
0;
0<
#91500
1!
1;
1<
0A
1=
1>
#92000
0!
0;
0<
#92500
1!
1;
1<
1A
0=
0>
1D
0B
0C
0G
1E
1F
#93000
0!
0;
0<
#93500
1!
1;
1<
0A
1=
1>
#94000
0!
0;
0<
#94500
1!
1;
1<
1A
0=
0>
0D
1B
1C
#95000
0!
0;
0<
#95500
1!
1;
1<
0A
1=
1>
#96000
0!
0;
0<
#96500
1!
1;
1<
1A
0=
0>
1D
0B
0C
1G
0E
0F
1J
0H
0I
1M
0K
0L
0P
1N
1O
#97000
0!
0;
0<
#97500
1!
1;
1<
0A
1=
1>
#98000
0!
0;
0<
#98500
1!
1;
1<
1A
0=
0>
0D
1B
1C
#99000
0!
0;
0<
#99500
1!
1;
1<
0A
1=
1>
