automatic_counter/simulation/qsim/automatic_counter.msim.vcd
$comment
	File created using the following command:
		vcd file automatic_counter.msim.vcd -direction
$end
$date
	Fri Sep 22 19:18:23 2023
$end
$version
	ModelSim Version 10.5b
$end
$timescale
	1ps
$end

$scope module automatic_counter_vlg_vec_tst $end
$var reg 1 ! clear $end
$var reg 1 " clk_fpga $end
$var reg 1 # clk_manual $end
$var wire 1 $ a $end
$var wire 1 % b $end
$var wire 1 & c $end
$var wire 1 ' d $end
$var wire 1 ( digital_o $end
$var wire 1 ) e $end
$var wire 1 * f $end
$var wire 1 + g $end

$scope module i1 $end
$var wire 1 , gnd $end
$var wire 1 - vcc $end
$var wire 1 . unknown $end
$var tri1 1 / devclrn $end
$var tri1 1 0 devpor $end
$var tri1 1 1 devoe $end
$var wire 1 2 a~output_o $end
$var wire 1 3 b~output_o $end
$var wire 1 4 c~output_o $end
$var wire 1 5 d~output_o $end
$var wire 1 6 e~output_o $end
$var wire 1 7 f~output_o $end
$var wire 1 8 g~output_o $end
$var wire 1 9 digital_o~output_o $end
$var wire 1 : clk_manual~input_o $end
$var wire 1 ; clk_fpga~input_o $end
$var wire 1 < inst2|inst~feeder_combout $end
$var wire 1 = inst2|inst~q $end
$var wire 1 > inst2|inst1~q $end
$var wire 1 ? inst2|inst2~q $end
$var wire 1 @ inst2|inst6~combout $end
$var wire 1 A inst|inst|inst3~0_combout $end
$var wire 1 B inst|inst|inst3~feeder_combout $end
$var wire 1 C clear~input_o $end
$var wire 1 D inst|inst|inst3~q $end
$var wire 1 E inst|inst|inst6~0_combout $end
$var wire 1 F inst|inst|inst6~feeder_combout $end
$var wire 1 G inst|inst|inst6~q $end
$var wire 1 H inst|inst|inst7~0_combout $end
$var wire 1 I inst|inst|inst7~q $end
$var wire 1 J inst|inst2|inst|inst6~0_combout $end
$var wire 1 K inst|inst2|inst|inst9~0_combout $end
$var wire 1 L inst|inst2|inst|inst10~combout $end
$var wire 1 M inst|inst2|inst|inst16~0_combout $end
$var wire 1 N inst|inst2|inst|inst16~1_combout $end
$var wire 1 O inst|inst2|inst|inst24~0_combout $end
$var wire 1 P inst|inst2|inst|inst28~0_combout $end
$upscope $end
$upscope $end
$enddefinitions $end
#0
$dumpvars
0!
0"
0#
0$
0%
0&
0'
0(
0)
0*
1+
0,
1-
x.
1/
10
11
02
03
04
05
06
07
18
09
0:
0;
0<
0=
0>
0?
0@
1A
1B
0C
0D
1E
1F
0G
1H
0I
1J
1K
1L
1M
1N
1O
0P
$end
#2500
1"
1;
1<
#5000
0"
0;
0<
#7500
1"
1;
1<
#10000
0"
0;
0<
#12500
1"
1;
1<
#15000
0"
0;
0<
#17500
1"
1;
1<
#20000
0"
0;
0<
#22500
1"
1;
1<
#25000
1#
0"
0;
1:
0<
1=
#27500
1"
1;
1<
#30000
0"
0;
0<
#32500
1"
1;
1<
#35000
0"
0;
0<
#37500
1"
1;
1<
#40000
0"
0;
0<
#42500
1"
1;
1<
#45000
0"
0;
0<
#47500
1"
1;
1<
#50000
0#
0"
0;
0:
0<
#52500
1"
1;
1<
#55000
0"
0;
0<
#57500
1"
1;
1<
#60000
0"
0;
0<
#62500
1"
1;
1<
#65000
0"
0;
0<
#67500
1"
1;
1<
#70000
0"
0;
0<
#72500
1"
1;
1<
#75000
1#
0"
0;
1:
0<
1>
#77500
1"
1;
1<
#80000
0"
0;
0<
#82500
1"
1;
1<
#85000
0"
0;
0<
#87500
1"
1;
1<
#90000
0"
0;
0<
#92500
1"
1;
1<
#95000
0"
0;
0<
#97500
1"
1;
1<
#100000
0#
0"
0;
0:
0<
#102500
1"
1;
1<
#105000
0"
0;
0<
#107500
1"
1;
1<
#110000
0"
0;
0<
#112500
1"
1;
1<
#115000
0"
0;
0<
#117500
1"
1;
1<
#120000
0"
0;
0<
#122500
1"
1;
1<
#125000
1#
0"
0;
1:
0<
1?
1@
19
1(
1D
0O
0N
0M
0J
0A
12
15
16
17
1*
1)
1'
1$
0B
#127500
1"
1;
1<
#130000
0"
0;
0<
#132500
1"
1;
1<
#135000
0"
0;
0<
#137500
1"
1;
1<
#140000
0"
0;
0<
#142500
1"
1;
1<
#145000
0"
0;
0<
#147500
1"
1;
1<
#150000
0#
0"
0;
0:
0<
#152500
1"
1;
1<
#155000
0"
0;
0<
#157500
1"
1;
1<
#160000
0"
0;
0<
#162500
1"
1;
1<
#165000
0"
0;
0<
#167500
1"
1;
1<
#170000
0"
0;
0<
#172500
1"
1;
1<
#175000
1#
0"
0;
1:
0<
#177500
1"
1;
1<
#180000
0"
0;
0<
#182500
1"
1;
1<
#185000
0"
0;
0<
#187500
1"
1;
1<
#190000
0"
0;
0<
#192500
1"
1;
1<
#195000
0"
0;
0<
#197500
1"
1;
1<
#200000
0#
0"
0;
0:
0<
#202500
1"
1;
1<
#205000
0"
0;
0<
#207500
1"
1;
1<
#210000
0"
0;
0<
#212500
1"
1;
1<
#215000
0"
0;
0<
#217500
1"
1;
1<
#220000
0"
0;
0<
#222500
1"
1;
1<
#225000
1#
0"
0;
1:
0<
#227500
1"
1;
1<
#230000
0"
0;
0<
#232500
1"
1;
1<
#235000
0"
0;
0<
#237500
1"
1;
1<
#240000
0"
0;
0<
#242500
1"
1;
1<
#245000
0"
0;
0<
#247500
1"
1;
1<
#250000
0#
0"
0;
0:
0<
#252500
1"
1;
1<
#255000
0"
0;
0<
#257500
1"
1;
1<
#260000
0"
0;
0<
#262500
1"
1;
1<
#265000
0"
0;
0<
#267500
1"
1;
1<
#270000
0"
0;
0<
#272500
1"
1;
1<
#275000
1#
0"
0;
1:
0<
#277500
1"
1;
1<
#280000
0"
0;
0<
#282500
1"
1;
1<
#285000
0"
0;
0<
#287500
1"
1;
1<
#290000
0"
0;
0<
#292500
1"
1;
1<
#295000
0"
0;
0<
#297500
1"
1;
1<
#300000
0#
0"
0;
0:
0<
#302500
1"
1;
1<
#305000
0"
0;
0<
#307500
1"
1;
1<
#310000
0"
0;
0<
#312500
1"
1;
1<
#315000
0"
0;
0<
#317500
1"
1;
1<
#320000
0"
0;
0<
#322500
1"
1;
1<
#325000
1#
0"
0;
1:
0<
#327500
1"
1;
1<
#330000
0"
0;
0<
#332500
1"
1;
1<
#335000
0"
0;
0<
#337500
1"
1;
1<
#340000
0"
0;
0<
#342500
1"
1;
1<
#345000
0"
0;
0<
#347500
1"
1;
1<
#350000
0#
0"
0;
0:
0<
#352500
1"
1;
1<
#355000
0"
0;
0<
#357500
1"
1;
1<
#360000
0"
0;
0<
#362500
1"
1;
1<
#365000
0"
0;
0<
#367500
1"
1;
1<
#370000
0"
0;
0<
#372500
1"
1;
1<
#375000
1#
0"
0;
1:
0<
#377500
1"
1;
1<
#380000
0"
0;
0<
#382500
1"
1;
1<
#385000
0"
0;
0<
#387500
1"
1;
1<
#390000
0"
0;
0<
#392500
1"
1;
1<
#395000
0"
0;
0<
#397500
1"
1;
1<
#400000
0#
0"
0;
0:
0<
#402500
1"
1;
1<
#405000
0"
0;
0<
#407500
1"
1;
1<
#410000
0"
0;
0<
#412500
1"
1;
1<
#415000
0"
0;
0<
#417500
1"
1;
1<
#420000
0"
0;
0<
#422500
1"
1;
1<
#425000
1#
0"
0;
1:
0<
#427500
1"
1;
1<
#430000
0"
0;
0<
#432500
1"
1;
1<
#435000
0"
0;
0<
#437500
1"
1;
1<
#440000
0"
0;
0<
#442500
1"
1;
1<
#445000
0"
0;
0<
#447500
1"
1;
1<
#450000
0#
0"
0;
0:
0<
#452500
1"
1;
1<
#455000
0"
0;
0<
#457500
1"
1;
1<
#460000
0"
0;
0<
#462500
1"
1;
1<
#465000
0"
0;
0<
#467500
1"
1;
1<
#470000
0"
0;
0<
#472500
1"
1;
1<
#475000
1#
0"
0;
1:
0<
#477500
1"
1;
1<
#480000
0"
0;
0<
#482500
1"
1;
1<
#485000
0"
0;
0<
#487500
1"
1;
1<
#490000
0"
0;
0<
#492500
1"
1;
1<
#495000
0"
0;
0<
#497500
1"
1;
1<
#500000
0#
0"
0;
0:
0<
#502500
1"
1;
1<
#505000
0"
0;
0<
#507500
1"
1;
1<
#510000
0"
0;
0<
#512500
1"
1;
1<
#515000
0"
0;
0<
#517500
1"
1;
1<
#520000
0"
0;
0<
#522500
1"
1;
1<
#525000
1#
0"
0;
1:
0<
#527500
1"
1;
1<
#530000
0"
0;
0<
#532500
1"
1;
1<
#535000
0"
0;
0<
#537500
1"
1;
1<
#540000
0"
0;
0<
#542500
1"
1;
1<
#545000
0"
0;
0<
#547500
1"
1;
1<
#550000
0#
0"
0;
0:
0<
#552500
1"
1;
1<
#555000
0"
0;
0<
#557500
1"
1;
1<
#560000
0"
0;
0<
#562500
1"
1;
1<
#565000
0"
0;
0<
#567500
1"
1;
1<
#570000
0"
0;
0<
#572500
1"
1;
1<
#575000
1#
0"
0;
1:
0<
#577500
1"
1;
1<
#580000
0"
0;
0<
#582500
1"
1;
1<
#585000
0"
0;
0<
#587500
1"
1;
1<
#590000
0"
0;
0<
#592500
1"
1;
1<
#595000
0"
0;
0<
#597500
1"
1;
1<
#600000
0#
0"
0;
0:
0<
#602500
1"
1;
1<
#605000
0"
0;
0<
#607500
1"
1;
1<
#610000
0"
0;
0<
#612500
1"
1;
1<
#615000
0"
0;
0<
#617500
1"
1;
1<
#620000
0"
0;
0<
#622500
1"
1;
1<
#625000
1#
0"
0;
1:
0<
#627500
1"
1;
1<
#630000
0"
0;
0<
#632500
1"
1;
1<
#635000
0"
0;
0<
#637500
1"
1;
1<
#640000
0"
0;
0<
#642500
1"
1;
1<
#645000
0"
0;
0<
#647500
1"
1;
1<
#650000
0#
0"
0;
0:
0<
#652500
1"
1;
1<
#655000
0"
0;
0<
#657500
1"
1;
1<
#660000
0"
0;
0<
#662500
1"
1;
1<
#665000
0"
0;
0<
#667500
1"
1;
1<
#670000
0"
0;
0<
#672500
1"
1;
1<
#675000
1#
0"
0;
1:
0<
#677500
1"
1;
1<
#680000
0"
0;
0<
#682500
1"
1;
1<
#685000
0"
0;
0<
#687500
1"
1;
1<
#690000
0"
0;
0<
#692500
1"
1;
1<
#695000
0"
0;
0<
#697500
1"
1;
1<
#700000
0#
0"
0;
0:
0<
#702500
1"
1;
1<
#705000
0"
0;
0<
#707500
1"
1;
1<
#710000
0"
0;
0<
#712500
1"
1;
1<
#715000
0"
0;
0<
#717500
1"
1;
1<
#720000
0"
0;
0<
#722500
1"
1;
1<
#725000
1#
0"
0;
1:
0<
#727500
1"
1;
1<
#730000
0"
0;
0<
#732500
1"
1;
1<
#735000
0"
0;
0<
#737500
1"
1;
1<
#740000
0"
0;
0<
#742500
1"
1;
1<
#745000
0"
0;
0<
#747500
1"
1;
1<
#750000
0#
0"
0;
0:
0<
#752500
1"
1;
1<
#755000
0"
0;
0<
#757500
1"
1;
1<
#760000
0"
0;
0<
#762500
1"
1;
1<
#765000
0"
0;
0<
#767500
1"
1;
1<
#770000
0"
0;
0<
#772500
1"
1;
1<
#775000
1#
0"
0;
1:
0<
#777500
1"
1;
1<
#780000
0"
0;
0<
#782500
1"
1;
1<
#785000
0"
0;
0<
#787500
1"
1;
1<
#790000
0"
0;
0<
#792500
1"
1;
1<
#795000
0"
0;
0<
#797500
1"
1;
1<
#800000
0#
0"
0;
0:
0<
#802500
1"
1;
1<
#805000
0"
0;
0<
#807500
1"
1;
1<
#810000
0"
0;
0<
#812500
1"
1;
1<
#815000
0"
0;
0<
#817500
1"
1;
1<
#820000
0"
0;
0<
#822500
1"
1;
1<
#825000
1#
0"
0;
1:
0<
#827500
1"
1;
1<
#830000
0"
0;
0<
#832500
1"
1;
1<
#835000
0"
0;
0<
#837500
1"
1;
1<
#840000
0"
0;
0<
#842500
1"
1;
1<
#845000
0"
0;
0<
#847500
1"
1;
1<
#850000
0#
0"
0;
0:
0<
#852500
1"
1;
1<
#855000
0"
0;
0<
#857500
1"
1;
1<
#860000
0"
0;
0<
#862500
1"
1;
1<
#865000
0"
0;
0<
#867500
1"
1;
1<
#870000
0"
0;
0<
#872500
1"
1;
1<
#875000
1#
0"
0;
1:
0<
#877500
1"
1;
1<
#880000
0"
0;
0<
#882500
1"
1;
1<
#885000
0"
0;
0<
#887500
1"
1;
1<
#890000
0"
0;
0<
#892500
1"
1;
1<
#895000
0"
0;
0<
#897500
1"
1;
1<
#900000
0#
0"
0;
0:
0<
#902500
1"
1;
1<
#905000
0"
0;
0<
#907500
1"
1;
1<
#910000
0"
0;
0<
#912500
1"
1;
1<
#915000
0"
0;
0<
#917500
1"
1;
1<
#920000
0"
0;
0<
#922500
1"
1;
1<
#925000
1#
0"
0;
1:
0<
#927500
1"
1;
1<
#930000
0"
0;
0<
#932500
1"
1;
1<
#935000
0"
0;
0<
#937500
1"
1;
1<
#940000
0"
0;
0<
#942500
1"
1;
1<
#945000
0"
0;
0<
#947500
1"
1;
1<
#950000
0#
0"
0;
0:
0<
#952500
1"
1;
1<
#955000
0"
0;
0<
#957500
1"
1;
1<
#960000
0"
0;
0<
#962500
1"
1;
1<
#965000
0"
0;
0<
#967500
1"
1;
1<
#970000
0"
0;
0<
#972500
1"
1;
1<
#975000
1#
0"
0;
1:
0<
#977500
1"
1;
1<
#980000
0"
0;
0<
#982500
1"
1;
1<
#985000
0"
0;
0<
#987500
1"
1;
1<
#990000
0"
0;
0<
#992500
1"
1;
1<
#995000
0"
0;
0<
#997500
1"
1;
1<
