VHDL/synchronous_counter/simulation/qsim/contador_sincrono.msim.vcd
$comment
	File created using the following command:
		vcd file contador_sincrono.msim.vcd -direction
$end
$date
	Wed Sep 20 13:43:39 2023
$end
$version
	ModelSim Version 10.5b
$end
$timescale
	1ps
$end

$scope module contador_sincrono_vlg_vec_tst $end
$var reg 1 ! clear $end
$var reg 1 " clock $end
$var wire 1 # h_a_o $end
$var wire 1 $ h_b_o $end
$var wire 1 % h_c_o $end
$var wire 1 & h_d_o $end
$var wire 1 ' h_e_o $end
$var wire 1 ( h_f_o $end
$var wire 1 ) h_g_o $end

$scope module i1 $end
$var wire 1 * gnd $end
$var wire 1 + vcc $end
$var wire 1 , unknown $end
$var tri1 1 - devclrn $end
$var tri1 1 . devpor $end
$var tri1 1 / devoe $end
$var wire 1 0 h_a_o~output_o $end
$var wire 1 1 h_b_o~output_o $end
$var wire 1 2 h_c_o~output_o $end
$var wire 1 3 h_d_o~output_o $end
$var wire 1 4 h_e_o~output_o $end
$var wire 1 5 h_f_o~output_o $end
$var wire 1 6 h_g_o~output_o $end
$var wire 1 7 clock~input_o $end
$var wire 1 8 inst6|inst1~0_combout $end
$var wire 1 9 clear~input_o $end
$var wire 1 : inst6|inst1~q $end
$var wire 1 ; inst6|inst2~0_combout $end
$var wire 1 < inst6|inst2~q $end
$var wire 1 = inst6|inst3~0_combout $end
$var wire 1 > inst6|inst3~q $end
$var wire 1 ? inst|inst|inst6~0_combout $end
$var wire 1 @ inst|inst|inst9~0_combout $end
$var wire 1 A inst|inst|inst10~combout $end
$var wire 1 B inst|inst|inst16~0_combout $end
$var wire 1 C inst|inst|inst22~0_combout $end
$var wire 1 D inst|inst|inst24~0_combout $end
$var wire 1 E inst|inst|inst28~0_combout $end
$upscope $end
$upscope $end
$enddefinitions $end
#0
$dumpvars
0!
0"
0#
0$
0%
0&
0'
0(
1)
0*
1+
x,
1-
1.
1/
00
01
02
03
04
05
16
07
18
09
0:
0;
0<
0=
0>
1?
1@
1A
0B
1C
1D
0E
$end
#5000
1"
17
1:
0D
0C
0?
1B
1;
08
13
10
14
15
1(
1'
1#
1&
#10000
0"
07
#15000
1"
17
1<
0:
1E
1C
0A
1?
0B
18
03
00
12
04
06
0)
0'
1%
0#
0&
#20000
0"
07
#25000
1"
17
1:
0C
1A
1=
0;
08
02
14
1'
0%
#30000
0"
07
#35000
1"
17
1>
0<
0:
1D
0?
1B
18
13
10
05
0(
1#
1&
#40000
0"
07
#45000
1"
17
1:
0@
1?
0B
1;
08
03
00
11
1$
0#
0&
#50000
0"
07
#55000
1"
17
1<
0:
1C
18
04
0'
#60000
0"
07
#65000
1"
17
1:
0E
0D
0C
1@
1B
0=
0;
08
13
01
14
15
16
1)
1(
1'
0$
1&
#70000
0"
07
#75000
1"
17
0>
0<
0:
1D
1C
0B
18
03
04
05
0(
0'
0&
